Added Component: Designator=C39(cap0402 - 100nF)
Add component (AddParameter): Name = "Capacitance"; Value = "100nF"; VariantName = "[No Variations]"
Add component (AddParameter): Name = "Supplier 1"; Value = "Farnell"; VariantName = "[No Variations]"
Add component (AddParameter): Name = "Supplier Part Number 1"; Value = "2611907"; VariantName = "[No Variations]"
Added Pin To Net: NetName=5V Pin=C39-1
Added Pin To Net: NetName=GND Pin=C39-2
Added Member To Class: ClassName=Servo_schematic Member=Component C39 100nF
