70,793.100000
71,800.900000
72,809.200000
73,816.000000
74,823.700000
75,829.400000
76,837.300000
77,844.000000
78,850.800000
79,856.300000
80,863.700000
81,869.700000
82,874.900000
83,881.100000
84,886.300000
85,892.400000
86,896.700000
87,900.300000
88,905.100000
89,910.500000
90,914.300000
91,917.100000
92,922.500000
93,923.400000
94,927.100000
95,930.400000
96,932.600000
97,935.100000
98,936.500000
99,939.000000
100,939.700000
101,941.700000
102,942.400000
103,942.700000
104,942.900000
105,940.400000
106,941.100000
107,941.700000
108,940.700000
109,939.800000
110,937.300000
111,936.200000
112,933.200000
113,930.800000
114,928.500000
115,924.600000
116,920.900000
117,917.600000
118,913.000000
119,907.200000
120,901.600000
121,895.800000
122,890.000000
123,885.100000
124,878.700000
125,870.900000
126,864.100000
127,856.300000
128,848.800000
129,839.400000
130,830.800000
131,822.300000
132,810.800000
133,800.200000
134,789.400000
135,778.300000
136,766.800000
137,755.300000
138,743.000000
139,730.600000
140,717.100000
141,703.400000
142,688.900000
143,675.300000
144,659.500000
145,644.400000
146,628.900000
147,612.600000
148,596.400000
149,579.800000
150,562.800000
