70,1254.300000
71,1252.900000
72,1280.100000
73,1299.300000
74,1309.100000
75,1314.300000
76,1324.500000
77,1345.900000
78,1368.600000
79,1385.000000
80,1399.600000
81,1398.900000
82,1411.600000
83,1427.600000
84,1439.700000
85,1453.900000
86,1469.200000
87,1492.800000
88,1504.200000
89,1524.500000
90,1556.300000
91,1569.600000
92,1578.800000
93,1584.900000
94,1589.500000
95,1601.100000
96,1624.700000
97,1635.800000
98,1646.400000
99,1651.200000
100,1650.300000
101,1663.700000
102,1666.500000
103,1669.900000
104,1682.500000
105,1688.600000
106,1693.500000
107,1699.600000
108,1702.900000
109,1707.100000
110,1712.400000
111,1716.300000
112,1722.900000
113,1722.600000
114,1723.500000
115,1730.200000
116,1745.200000
117,1745.800000
118,1741.500000
119,1736.900000
120,1738.700000
121,1737.500000
122,1727.400000
123,1725.900000
124,1719.900000
125,1704.700000
126,1716.300000
127,1706.400000
128,1700.600000
129,1690.900000
130,1664.300000
131,1645.400000
132,1646.600000
133,1638.800000
134,1627.600000
135,1606.700000
136,1590.000000
137,1559.000000
138,1554.900000
139,1534.900000
140,1512.800000
141,1489.600000
142,1467.200000
143,1436.500000
144,1403.900000
145,1360.700000
146,1337.500000
147,1319.400000
148,1287.900000
149,1262.000000
150,1195.300000
